<<<<<<< HEAD
 HEAD
<h1>This is my index title</h1>
 HEAD
Rekha added one line
=======
<h1>Adding contents here </h1>
 cd59d26d2a92f177522952c9345307398779b0d7
=======
<h1>This is my index title</h1>adding footer
 9613fb2bc45e4d9325d56c40fb76da4f98dd2ac5
=======
<h1>This is my index title</h1>

>>>>>>> 806ded122a19bf6a8e533a08b754dc9aac6db803
